  20000000, -6.0
  50000000, -4.0
 100000000, -3.0
 200000000,  5.0
 400000000,  7.0
 600000000,  7.0
 800000000,  7.0
1000000000,  8.0
1500000000,  5.0
2000000000, 10.0
2500000000,  9.0
3000000000,  8.0
