  20000000, 145.0
  30000000, 142.0
  50000000, 141.0
 100000000, 135.0
 150000000, 133.0
 200000000, 130.0
 400000000, 129.0
 500000000, 129.0
1000000000, 134.0
1500000000, 137.0
2000000000, 139.0
3000000000, 139.0
