  20000000,-32
  35000000,-32
  36000000,-32
  57000000,-25
  97000000, -2
 115000000,-16
 141000000,-13
 175000000,  1
 200000000,  7.6
 550000000,  0
 550100000,-11
 650000000,  0
1500000000,-11
2000000000,-11
2700000000,  3
3500000000,-10
5000000000,  0
5800000000,  0
8000000000, -6
