  300000,	5.25
  400000,	6.15
  500000,	6.35
  700000,	6.60
  900000,	6.73
 1000000,	6.77
 1300000,	6.87
 1600000,	6.97
 2000000,	7.01
 3000000,	7.10
 4300000,	7.16
 7300000,	7.15
10300000,	7.10
13300000,	7.05
16300000,	6.98
19300000,	6.93
22300000,	6.87
25300000,	6.74
28300000,	6.66
30000000,	6.55
