  20000000, 136.0
  30000000, 134.0
  60000000, 135.0
 100000000, 134.0
 200000000, 138.0
 300000000, 138.0
 400000000, 138.0
 500000000, 140.0
 800000000, 139.0
1000000000, 142.0
2000000000, 143.0
3000000000, 146.0
4000000000, 148.0
6000000000, 149.0
7000000000, 153.0
7500000000, 154.0
8000000000, 155.0
